…
> sigma = c(0.25, 0.5, 1)         # sigma
> 
> # Use foreach loops to run simulations of 4 metrics
> # for 4 multiple comparison methods
> fit = foreach(i = 1:3,.packages = c('tidyverse')) %dopar%{
+   lapply(rho,function(x) fun_q2b(x, sigma[i], mc_rep, beta))
+ }
> 
> results_q4b= NULL
> for (i in 1:7){
+ results_q4b = rbind(results_q4b,
+                     as.tibble(do.call('rbind',lapply(fit, function(x) x[[i]]))))
+ }
> print(results_q4b)
# A tibble: 336 x 6
     rho sigma metric      method        est        se
   <dbl> <dbl> <chr>       <chr>       <dbl>     <dbl>
 1 -0.75  0.25 FWER        holm       0.0444 0.00206  
 2 -0.75  0.25 FDR         holm       0.0126 0.000673 
 3 -0.75  0.25 Sensitivity holm       0.311  0.00152  
 4 -0.75  0.25 Specificity holm       0.999  0.0000240
 5 -0.75  0.25 FWER        bonferroni 0.0429 0.00203  
 6 -0.75  0.25 FDR         bonferroni 0.0123 0.000675 
 7 -0.75  0.25 Sensitivity bonferroni 0.308  0.00150  
 8 -0.75  0.25 Specificity bonferroni 1.000  0.0000235
 9 -0.75  0.25 FWER        BH         0.233  0.00423  
10 -0.75  0.25 FDR         BH         0.0438 0.000889 
# ... with 326 more rows
…
